1952-11-04
1931-10-24
1988-01-07
1969-10-12
1993-11-03
1951-11-09
1953-10-08
1950-09-12
1948-11-14
1977-10-31
1922-04-14
1965-07-12
1937-03-09
1984-07-28
1977-11-16
1958-02-04
1943-10-28
1945-09-29
1933-11-17
1933-10-01
1965-09-04
1950-06-20
1926-07-22
1924-03-11
1989-05-08
1960-03-01
1920-09-13
1958-07-28
1997-04-22
1937-05-13
1921-05-23
1935-11-03
1950-02-03
1938-11-21
1954-01-01
1999-01-10
1978-06-28
1985-03-24
1961-11-16
1921-11-07
1994-05-06
1962-12-05
1961-07-31
1922-02-22
1951-10-01
1984-09-04
1950-06-27
1954-10-20
1927-08-09
1949-08-27
1934-12-26
1946-05-28
1965-10-12
1974-05-26
1943-08-21
1929-08-16
1999-02-16
1959-08-25
1948-07-14
1921-04-06
1953-12-15
1940-04-18
1972-11-29
1961-10-16
1938-11-06
1960-09-06
1986-12-20
1964-01-23
1997-05-25
1926-04-23
1919-04-02
1953-09-20
1931-11-03
1964-10-02
1945-05-28
1975-10-14
1999-09-07
1946-06-28
1952-05-27
1943-08-09
1921-11-07
1979-12-23
1958-10-03
1981-12-01
1992-12-14
1938-12-31
1957-06-08
1978-07-13
1948-06-13
1993-05-23
1985-01-22
1942-11-13
1935-09-18
1966-07-07
1987-02-15
1920-07-16
1945-10-20
1979-01-05
1980-09-17
1919-10-01
1965-02-15
1967-12-23
1957-03-14
1966-11-27
1989-11-21
1983-12-23
1999-07-01
1944-06-04
1980-06-30
1965-04-14
1969-01-22
1976-03-16
1972-06-01
1920-09-10
1929-06-11
1959-05-20
1990-01-26
1940-08-30
1981-11-18
1923-02-05
1999-03-10
1997-08-02
1961-08-10
1975-03-01
1973-08-14
1955-09-21
1921-11-23
1950-11-11
1945-02-01
1988-08-19
1942-01-29
1956-09-14
1929-10-06
1927-05-05
1942-10-26
1967-01-19
1930-04-16
1996-03-22
1960-08-23
1954-01-23
1986-05-23
1934-04-17
1951-04-19
1963-12-05
1993-06-29
1991-08-20
1983-01-14
1974-09-19
1943-08-21
1926-08-26
1937-02-01
1933-04-11
1992-09-12
1930-06-15
1958-07-09
1945-11-29
1966-11-22
1958-05-22
1933-11-09
1981-11-27
1954-11-18
1980-02-15
1928-01-08
1934-01-16
1977-05-31
1933-10-12
1938-09-09
1918-10-15
1991-08-27
1955-04-27
1958-07-03
1990-07-14
1986-04-25
1945-02-11
1994-09-06
1919-08-15
1965-10-24
1989-07-04
1945-12-04
1977-06-13
1932-02-04
1926-03-09
1927-09-15
1937-05-13
1984-08-29
1977-02-08
1973-04-16
1989-10-18
1991-01-08
1967-03-24
1921-10-06
1988-03-16
1952-12-18
1963-11-18
1925-07-13
1948-11-01
1965-02-03
1935-06-04
1966-04-24
1962-02-06
1930-03-14
1928-06-27
1966-06-27
1953-09-19
1981-08-05
1938-03-07
1929-06-20
1989-03-12
1933-12-10
1928-04-28
1942-09-27
1923-09-05
1938-09-26
1989-01-08
1996-03-19
1994-04-09
1957-01-26
1956-03-18
1980-12-20
1970-05-24
1938-12-20
1941-10-01
1951-10-11
1922-05-31
1990-07-08
1943-05-03
1927-06-23
1975-06-12
1957-04-29
1947-09-10
1992-02-28
1931-06-26
1942-02-10
1943-12-27
1993-03-20
1972-03-23
1998-04-14
2000-03-04
1988-01-24
1953-12-13
1989-09-22
1993-11-29
1924-02-12
1995-06-24
1961-07-12
1933-09-10
1939-12-16
1978-10-15
1976-01-20
1995-04-04
1962-09-10
1988-10-27
1949-03-17
1925-09-08
1970-10-17
1960-02-07
1952-08-08
1983-11-06
1974-09-26
1964-09-08
1941-11-28
1942-12-25
1996-01-27
1919-06-14
1970-06-25
1944-05-20
1937-05-19
1985-01-29
1992-11-26
1975-07-27
1928-10-05
1938-10-27
1994-02-24
1974-06-18
1941-07-20
1995-05-14
1996-06-17
1962-06-15
1992-01-12
1953-08-30
1971-04-29
1988-09-06
1983-10-24
1986-03-24
1919-11-27
1971-10-17
1935-12-29
1931-05-23
1927-10-19
1934-06-09
1986-06-26
1988-01-27
1978-07-30
1975-05-27
1943-11-18
1964-09-17
1982-08-03
1938-05-24
1956-06-30
1937-03-06
1918-09-01
1950-01-03
1959-06-21
1983-12-08
1978-09-06
1951-04-17
1956-06-22
1999-07-29
1974-01-22
1932-07-18
1957-08-07
1955-04-18
1951-09-28
1952-12-03
1982-02-23
1930-03-11
1943-11-10
1943-04-08
1983-06-15
1943-03-05
1956-09-23
1918-08-12
1966-03-11
1969-03-03
1933-03-08
1926-01-29
1973-05-07
1967-03-11
1947-01-30
1946-10-17
1942-04-05
1991-11-19
1949-08-28
1930-05-21
1976-05-15
1948-02-27
1966-05-10
1998-10-19
1929-06-02
1954-03-15
1935-04-24
1939-12-24
1950-08-29
1934-03-08
1949-02-14
1952-12-29
1944-07-10
1984-07-15
1982-08-07
1939-08-07
1999-06-01
1988-12-01
1922-04-11
1937-01-14
1920-08-27
1997-10-01
1931-07-07
1967-06-06
1924-09-05
1949-08-29
1936-01-11
1975-05-03
1926-12-30
1975-09-12
1954-08-29
1961-03-28
1947-01-05
1995-07-17
1964-02-21
1949-10-23
1934-02-03
1970-10-15
1950-11-03
1988-10-01
1939-04-26
1962-10-20
1919-08-04
1979-10-23
1937-02-13
1922-03-23
1954-07-03
1945-04-01
1938-10-14
1977-12-30
1968-09-17
1967-08-09
1981-04-02
1954-09-05
1935-08-07
1943-03-25
1928-09-20
1946-10-01
1977-07-16
1947-12-20
1937-01-07
1968-03-15
1938-11-09
1954-03-02
1970-05-13
1963-05-09
1938-06-30
1978-07-11
1958-10-11
1988-01-31
1924-01-22
1946-09-13
1955-11-03
1933-06-17
1930-06-22
1958-09-22
1941-10-03
1975-05-01
1946-10-14
1944-11-12
1941-07-13
1950-03-16
1930-01-17
1981-05-10
1988-09-22
1983-03-05
1990-07-25
1975-09-10
1928-07-02
1960-04-17
1940-09-28
1986-06-18
1965-06-14
1979-04-26
1945-04-16
1974-02-03
1969-09-16
1962-04-25
1926-11-22
1919-11-03
1990-06-02
1972-06-29
1981-07-07
1986-01-31
1999-09-04
1940-07-26
1925-04-14
1991-10-21
1999-02-23
1990-09-24
1987-09-25
1928-02-23
1932-02-23
1993-12-23
1982-12-14
1935-01-29
1976-11-27
1936-02-21
1970-11-12
1996-11-11
1946-11-22
1946-04-25
1966-06-03
1999-03-17
1925-09-25
1941-07-06
1959-08-09
1970-08-23
1953-12-09
1981-01-07
1925-09-04
1938-03-29
1994-12-21
1988-06-19
1921-10-26
1983-09-09
1997-12-21
1942-01-15
1953-03-13
1945-04-01
1961-01-30
1952-08-25
1991-08-29
1955-08-31
1956-07-23
1997-07-17
1992-12-31
1930-12-19
1919-04-20
1923-04-18
1970-11-30
1999-04-05
1994-02-11
1978-06-27
1922-01-26
1972-07-08
1945-03-19
1976-11-03
1937-03-01
1946-12-30
1991-09-05
1936-11-17
1960-08-12
1997-09-02
1977-09-08
1929-05-29
1987-01-12
1972-09-04
1939-01-20
1996-02-19
1941-01-22
1960-12-23
1937-11-27
1984-05-05
1977-07-28
1932-07-13
1983-01-03
1950-07-16
1933-06-16
1940-10-19
1986-05-11
1996-05-21
1936-12-15
1946-07-06
1944-02-08
1958-12-18
1923-03-30
1988-11-19
1996-01-28
1929-08-24
1982-10-15
1987-03-04
1945-12-27
1960-09-14
1937-09-22
1976-01-27
1971-01-22
1927-06-11
1967-09-25
1935-12-28
1924-01-26
1984-04-01
1955-06-20
1955-01-21
1923-04-09
1986-08-02
1922-08-20
1948-07-05
1926-12-25
1971-03-01
1929-07-25
1938-10-11
1961-04-25
1942-11-26
1945-06-26
1938-10-16
1973-07-07
1921-08-01
1925-08-14
1928-04-23
1921-10-15
1990-08-30
1978-01-22
1946-12-15
1952-02-06
1927-07-23
1993-08-14
1930-03-30
1967-03-25
1953-03-07
1978-07-04
1977-10-03
1991-08-20
1967-10-18
1984-09-01
1993-03-10
1940-04-23
1924-01-17
1953-02-03
1926-04-07
1965-08-17
1933-07-09
1966-11-01
1934-02-05
1935-12-20
1971-11-30
1982-02-25
1926-09-12
1981-09-30
1934-11-07
1988-05-22
1995-05-27
1919-04-06
1976-03-08
1998-01-11
1935-06-14
1949-11-03
1976-07-11
1979-07-16
1955-10-28
1944-07-23
1945-02-18
1919-06-18
1996-01-19
1949-03-14
1960-03-12
1993-07-19
1991-04-19
1924-12-10
1939-11-30
1952-11-29
1942-01-06
1946-11-24
1941-12-06
1938-01-07
1963-01-05
1986-05-22
1985-07-17
1982-05-21
1933-09-10
1997-01-25
1955-09-09
1980-03-25
1947-04-04
1983-03-06
1982-12-21
1990-09-18
1997-07-27
1978-01-25
1977-02-02
1976-12-21
2000-03-31
1928-04-09
1963-08-31
1961-08-07
1930-11-09
1932-01-05
1942-10-12
1954-01-20
1926-01-26
1954-06-22
1999-10-28
1941-11-15
1939-02-01
1987-01-21
1943-09-17
1928-02-19
1937-11-22
1993-03-19
1921-07-26
1927-08-14
1990-07-11
1974-04-19
1929-06-06
1989-01-07
1946-09-10
1948-05-20
1946-11-11
1972-02-08
1931-12-30
1924-07-27
1998-09-28
1974-05-01
1939-06-21
1945-08-26
1972-02-18
1967-10-30
1922-08-22
1932-01-13
1944-01-15
1941-09-30
1955-08-10
1933-03-30
1986-07-20
1922-09-16
1924-04-12
1940-11-20
1986-02-17
1986-03-05
1958-04-01
1925-05-08
1972-07-16
1968-05-21
1990-02-22
1919-04-11
1990-02-17
1936-11-09
1927-07-22
1926-08-08
1922-01-05
1947-03-17
1999-10-28
1966-07-02
1995-05-25
1960-04-03
1972-09-08
1997-01-05
1980-08-05
1980-03-01
1995-12-18
1939-07-30
1974-09-09
1926-07-14
1939-11-29
1918-08-17
1978-06-09
1945-08-01
1962-08-18
1979-10-25
1950-08-28
1936-02-05
1958-12-05
1964-01-07
1986-08-28
1969-11-14
1949-11-27
1953-05-27
1978-01-31
1975-05-08
1971-07-02
1985-01-17
1973-03-12
1994-11-14
1949-12-01
1941-01-19
1929-03-27
1936-10-17
1976-11-01
1919-05-06
1937-02-03
1942-05-07
1958-05-24
1937-03-04
1965-10-13
1961-07-13
1953-12-22
1922-07-31
1978-05-12
1943-12-20
1955-10-17
1969-02-02
1945-12-26
1980-04-21
1948-09-04
1956-07-03
1979-07-25
1961-04-28
1939-12-07
1941-02-05
1983-10-30
1992-11-24
1926-10-29
1995-08-09
1926-09-08
1922-09-04
1939-08-09
1921-02-25
1978-11-27
1955-12-23
1931-09-09
1998-08-03
1920-07-29
1932-08-31
1946-10-07
1954-12-17
1998-07-03
1918-09-30
1993-01-11
1975-06-29
1932-05-20
1972-05-20
1968-07-25
1966-09-15
1954-10-01
1999-06-26
1951-08-01
1992-06-06
1933-08-22
1918-08-01
1962-01-27
1996-12-26
1933-05-06
1991-09-16
1977-08-21
1955-02-19
1973-12-01
1930-06-26
1997-09-07
1988-09-24
1966-07-12
1972-11-15
1935-12-04
1950-07-24
1952-08-29
1963-04-05
1988-09-17
1919-12-12
1959-09-15
1986-06-05
1952-05-04
1954-04-11
1942-07-13
1947-05-29
1930-04-10
1981-12-18
1953-06-21
1976-09-20
1961-06-07
1962-06-12
1977-12-14
1998-06-01
1969-09-19
1969-07-02
1987-11-03
1998-01-15
1987-07-24
1993-07-03
1949-01-09
1951-02-19
1922-06-02
1932-05-09
1937-03-17
1928-02-09
1944-03-13
1927-06-22
1923-08-05
1993-08-24
1999-12-24
1986-12-02
1951-12-26
1994-01-31
1952-09-12
1985-08-07
1945-07-29
1966-03-06
1930-09-16
1973-05-29
1942-10-18
1980-11-26
1961-05-24
1942-03-23
1923-02-21
1994-01-26
1938-06-06
1990-07-14
1991-06-06
1946-05-17
1959-12-21
1952-04-08
1955-09-25
1992-12-26
1985-01-04
1973-05-30
1980-03-06
1996-06-09
1924-07-20
1933-06-05
1925-10-15
1991-12-11
1926-11-06
1941-07-29
1959-09-13
1974-08-09
1991-07-13
1963-01-19
1979-10-07
1956-07-03
1965-10-13
1945-05-26
1952-11-28
1936-11-10
1994-09-23
1973-06-02
1956-10-15
1949-08-18
1954-06-03
1995-05-12
1991-03-25
1931-03-21
1923-09-01
1966-04-18
1968-10-03
1974-08-09
1933-12-26
1966-06-21
1939-04-08
1930-11-26
1955-07-20
1944-03-06
1983-12-18
1931-05-20
1922-09-03
1959-07-12
1942-07-01
1978-11-04
1993-08-04
1963-02-19
1961-10-02
1990-05-04
1983-01-16
1952-12-09
1958-03-27
1990-03-31
1999-03-23
1978-01-08
1969-03-09
1948-07-17
1993-09-25
1922-10-29
1944-03-28
1929-01-30
1993-05-02
1931-10-28
1963-12-06
1969-04-19
1993-07-19
1969-07-11
1981-06-27
1960-12-13
1937-10-12
1993-09-24
1997-01-13
1970-09-16
1986-06-18
1979-08-03
1994-10-16
1927-08-12
1945-08-10
1932-11-20
1969-05-13
1994-03-07
1939-05-08
1957-03-02
1961-08-01
1920-05-10
1961-02-01
1944-11-14
1998-08-23
1956-01-14
1927-12-10
1956-08-31
1975-02-28
1931-03-08
1985-09-11
1948-03-25
1990-10-18
1956-10-30
1993-02-17
1943-03-09
1970-07-30
1951-05-27
1950-12-09
1986-03-05
1949-08-29
1999-08-10
1996-10-29
1955-11-20
1921-08-03
1981-08-17
1953-05-24
1935-08-21
1958-09-14
1991-06-05
1941-09-13
1989-09-06
1958-11-02
1995-04-13
1971-10-17
1919-03-19
1939-05-16
1954-06-18
1997-01-13
1957-10-25
1932-11-07
1968-11-28
1947-10-04
1987-11-06
1999-07-07
1942-02-25
1986-01-08
1965-03-17
1998-09-20
1989-04-22
1972-02-08
1925-07-06
1983-05-18
1963-11-26
1983-03-02
1943-11-24
1938-01-21
1958-09-23
1954-05-18
1943-07-12
1935-10-07
1953-06-20
1977-07-19
1972-10-30
1988-02-03
1962-01-05
1960-03-17
1954-08-05
1935-02-07
1975-06-04
1943-08-21
1983-11-29
1973-10-04