181-295-9345
448-233-3082
905-148-5299
776-673-3099
381-992-6898
746-125-8988
169-213-6114
564-412-8699
485-940-6063
820-866-3386
328-636-9227
213-160-6373
489-674-8549
139-339-0729
566-816-8720
853-320-3246
258-140-4711
105-311-1592
750-245-8398
976-327-3630
577-844-4808
128-925-5317
475-375-9638
928-375-8279
705-947-1303
357-529-1402
106-160-9002
412-197-5335
234-338-3547
757-875-0891
248-480-9968
620-674-4942
284-940-4845
842-758-7584
668-947-4677
134-778-4771
700-826-0176
797-538-1506
146-669-5513
926-350-9056
888-620-1534
635-781-0272
607-587-8432
831-372-1398
524-230-0709
760-876-3385
978-703-4323
187-179-0878
149-598-1127
647-901-0119
332-519-6753
205-523-2812
504-395-7066
891-872-0621
259-246-1913
367-654-7669
140-978-3016
483-581-4173
360-817-5768
990-436-9413
966-659-6093
237-157-4686
241-705-2086
725-646-4430
219-932-6834
809-410-6831
318-464-7285
627-212-8173
975-439-9076
904-575-5810
551-239-5825
946-533-7686
401-228-0207
523-248-8295
358-570-2191
816-102-3199
779-821-7393
765-859-9017
350-166-8423
255-742-5782
858-692-6984
108-901-7191
605-712-0358
856-234-5139
537-218-4749
375-332-7997
765-174-4384
468-751-9440
870-974-1137
168-986-6366
638-263-7214
161-543-3343
129-149-9910
231-803-1950
165-404-4462
218-438-0467
538-337-6982
709-422-6776
755-958-3864
369-556-5092
250-339-3047
929-313-9180
251-638-5421
194-485-8169
859-851-8896
281-689-4446
943-170-9308
186-319-4080
769-297-6991
192-691-7242
542-545-3945
471-340-1564
126-429-1777
510-936-9415
243-827-8720
459-635-0963
251-944-9382
688-860-4556
749-563-3991
332-606-5165
837-228-1656
206-290-5945
475-659-3509
667-329-3795
563-592-7526
535-594-7758
859-411-5304
330-753-1257
326-460-4888
391-829-3798
447-582-0190
433-813-2086
933-128-3902
756-533-2023
552-829-3475
780-256-9544
190-171-0578
742-403-9149
202-885-6663
842-226-9874
596-458-9625
619-408-9587
163-477-7911
978-592-4446
206-413-9971
597-360-4767
650-532-1312
242-902-6805
523-615-6434
580-257-1996
963-251-0995
916-491-6277
316-804-9805
886-399-0728
947-203-7030
725-718-6240
810-948-5670
711-147-2183
128-177-5294
408-664-8319
625-983-7847
334-603-4711
150-568-1148
632-936-5779
707-427-9410
759-320-4568
975-569-6285
949-685-6277
388-319-9670
359-479-8774
538-674-2472
989-500-2406
770-488-4398
676-160-2357
564-929-9429
786-134-7425
689-904-2009
446-762-4743
457-606-9397
518-205-7631
712-881-6378
495-169-2015
549-865-0296
913-492-0020
203-978-0345
607-117-1936
631-711-2436
140-409-3475
137-952-8585
497-925-7695
512-789-9641
194-868-1926
382-103-1566
439-812-0598
540-134-8185
757-332-2352
603-931-0052
660-993-4305
852-699-9729
738-478-7971
120-223-8730
695-363-9540
197-137-0182
569-831-6992
378-325-8259
710-609-0865
714-124-5647
154-650-9775
848-256-1314
266-545-0392
273-486-6261
328-263-5165
149-181-9191
869-404-7342
278-186-6999
574-482-1984
382-490-4879
937-995-4122
140-505-7146
384-377-3990
749-219-9941
992-774-5056
147-454-8418
159-704-4375
375-792-4097
341-711-7102
138-859-4041
344-872-4504
217-658-2821
526-537-6331
238-499-8124
287-984-9439
585-134-7324
101-606-5679
213-756-5975
102-900-1731
590-597-1982
686-515-0575
763-923-1373
551-500-9048
232-169-5585
783-609-4743
388-483-3406
868-616-1384
909-413-1493
780-768-1314
880-484-4711
112-635-3670
390-922-7545
354-899-4777
210-326-8035
184-348-3291
531-234-0341
317-589-6774
401-616-3981
463-781-4843
875-905-5281
986-837-1535
429-842-0902
879-715-2676
647-751-8059
250-478-0950
280-284-2879
279-345-1311
850-712-6163
917-348-5848
358-793-6809
737-246-4211
422-162-3372
609-162-2635
438-864-4147
276-242-5869
698-338-4952
283-586-1610
731-586-6857
388-128-3850
214-732-4197
741-866-7138
653-530-9779
764-807-5191
409-143-5941
425-745-1570
100-144-6271
984-154-0135
340-854-3601
754-901-3993
137-726-4723
534-537-8870
258-854-0076
365-597-0073
532-383-9076
309-823-5650
415-862-0497
573-898-0405
602-116-5668
573-744-3189
732-459-0064
449-901-8214
764-261-5423
297-588-8868
823-141-4519
347-822-4239
718-845-7453
609-126-4993
575-475-8666
350-893-4073
402-908-5051
383-644-2809
575-704-3267
501-540-4079
698-653-7410
497-440-4053
285-165-7256
602-304-3500
636-854-3906
586-234-6698
664-340-2460
277-847-8366
815-486-5957
950-823-7709
714-498-8038
688-606-2411
881-340-6063
638-176-0183
841-317-9127
498-525-0818
585-186-9777
762-309-8943
975-703-6549
205-341-8170
984-707-9235
852-611-6841
222-448-6009
721-409-0642
502-553-6626
469-603-4565
244-789-5454
267-110-2172
278-206-5870
430-703-5719
209-507-9553
196-451-4432
343-882-3614
279-778-1179
519-923-7522
861-185-3863
846-944-2018
977-840-4643
685-873-6742
741-732-6050
771-745-4098
732-161-4266
193-565-0697
397-602-5596
407-571-1447
454-913-7098
266-666-3653
602-747-2835
670-690-9216
682-432-0004
558-461-7490
329-649-8402
655-842-0542
805-495-4270
671-228-9498
342-392-6998
572-927-1650
831-722-5758
983-469-5726
942-654-2815
430-830-1538
604-510-1429
110-954-1916
369-150-0416
747-197-6579
619-876-9391
476-135-1043
233-382-2498
375-400-4923
215-581-4587
537-283-1227
279-970-6890
870-935-2252
164-182-9242
407-635-0969
635-814-5906
689-535-2956
577-468-9054
844-401-5062
160-957-5194
916-434-8989
667-924-6062
307-482-8431
443-954-4664
549-992-2053
440-324-2126
618-978-8639
200-509-8519
427-916-2995
644-317-2651
665-214-0747
739-441-1611
625-108-8793
705-372-7970
531-152-5642
219-340-5451
678-446-9009
904-904-0823
965-535-5244
451-990-1747
614-482-7491
435-459-7838
848-177-7050
633-643-4633
737-808-4744
920-900-3633
935-609-3269
949-181-3953
624-921-4696
149-838-7584
415-983-8618
419-304-4767
436-892-8228
554-612-2855
699-364-4720
475-749-4879
399-796-7474
865-892-0554
537-705-6605
254-311-8433
839-604-5089
642-340-1126
967-952-8805
197-994-9829
487-863-1703
980-474-3928
648-300-0570
430-509-5300
982-388-6762
917-425-2817
389-510-3143
807-375-9629
404-803-1703
495-544-1796
900-837-9764
475-235-0465
310-952-9917
820-451-1307
305-233-1648
571-399-2569
609-449-9482
115-577-3536
409-106-3040
909-474-6527
317-244-5826
962-821-4294
579-522-7886
552-233-8714
555-496-2682
907-361-5863
919-234-8542
318-160-1167
567-122-0459
453-761-7419
685-821-5917
976-474-1831
157-400-8860
183-644-3992
171-508-8171
841-853-9930
445-218-6204
851-605-5248
500-255-0844
921-228-3630
798-703-9728
362-251-9058
966-540-5199
670-515-3350
714-223-7224
997-755-7580
200-218-5788
782-546-7917
843-205-9949
669-667-4416
256-333-9654
632-978-5913
829-677-6162
819-995-9382
653-701-3083
289-228-5056
213-852-7633
226-962-9478
556-503-6968
584-125-2088
591-471-9552
671-801-1220
803-419-3836
938-152-8135
905-472-1682
667-755-8590
594-758-9855
848-858-5518
187-279-5018
910-116-7975
982-829-3555
100-867-5930
643-886-1058
457-284-8848
131-634-2377
942-855-1360
207-554-5511
164-202-7954
314-131-0455
908-191-6409
337-411-4165
823-600-5185
130-620-7067
146-336-7045
975-226-4399
475-550-1461
560-436-9643
918-434-2664
848-816-0668
114-598-9291
531-317-2790
768-107-3188
822-404-0388
786-995-3796
923-397-8881
546-472-3848
830-463-5397
958-637-6023
587-684-0306
716-273-4452
854-657-1354
540-995-7465
124-196-3748
393-645-4570
302-260-3394
281-345-5750
619-477-1820
860-815-9137
276-645-7464
686-171-4494
429-758-9244
587-792-9506
757-462-7067
132-992-5358
857-584-4756
384-364-8387
796-796-0281
518-316-4960
193-585-4679
633-697-8411
834-684-8311
368-670-1683
529-619-6298
359-134-2770
408-619-9584
906-586-9470
397-117-6887
726-449-3904
581-626-5479
484-581-5837
951-955-0627
395-710-5717
883-338-0033
378-711-6645
602-446-6409
501-545-4759
524-848-6352
727-178-3581
971-180-1095
376-878-9853
506-346-2744
168-389-9131
637-421-3782
307-745-9263
316-165-5276
779-501-7758
131-710-9396
971-192-3074
202-370-5310
457-275-3367
294-345-1271
871-227-5696
802-212-1149
397-999-3758
974-445-2025
599-604-3919
538-458-0709
109-953-7863
182-625-5923
296-791-2752
624-670-5396
705-627-9747
872-145-7455
546-669-7598
132-554-4552
932-397-7379
554-217-9856
811-582-8916
651-312-8875
349-451-1952
359-245-5544
659-203-7326
187-434-8923
337-885-4364
111-145-7834
399-864-4240
203-379-0804
538-391-0241
596-335-8039
998-512-8447
648-485-3325
671-886-9785
990-864-7356
292-959-2191
367-515-8207
331-544-9297
136-586-7023
912-914-6843
121-488-1074
934-719-9446
179-744-2903
122-198-0801
314-101-8701
684-950-3796
360-931-2482
901-394-2732
584-918-1768
273-539-4837
734-400-7510
967-453-0649
503-558-6770
192-365-5369
752-847-5629
712-305-4726
632-768-2433
766-438-6384
161-344-1481
724-328-7206
714-250-6056
511-511-1352
426-195-2561
839-390-6782
412-723-3439
900-854-1825
292-257-2565
862-664-9644
913-368-9602
988-880-9956
621-685-9141
316-130-6317
870-914-5104
256-243-2861
765-948-6817
553-484-9852
235-748-7107
774-897-9587
101-421-6677
890-338-0449
268-274-3846
469-936-8786
368-466-7775
145-613-4963
848-575-7238
906-841-1563
154-164-1818
933-260-1348
948-381-9156
512-534-3628
915-559-4013
964-508-2345
969-713-7702
147-991-9360
282-344-8426
675-452-4176
415-730-4508
493-428-6591
166-251-6280
149-435-6934
775-390-5159
149-339-8287
367-996-8566
119-269-1533
280-987-2661
436-183-1005
637-441-6856
434-885-6917
838-330-1908
220-531-5686
201-338-8033
429-490-5605
358-375-9524
427-765-8068
619-993-3578
306-529-2660
543-842-5225
436-329-6026
580-666-1803
336-971-9277
384-757-9314
455-176-0235
293-932-3920
381-893-5111
525-504-8857
202-214-0728
554-623-0262
161-155-5400
408-153-5463
648-874-6981
632-870-2939
318-672-4802
962-146-5447
343-449-4373
635-925-4319
487-327-1864
491-521-0515
334-592-7697
146-194-6530
566-392-7738
856-670-0937
753-438-8506
963-201-0405
770-336-0900
623-549-1835
698-453-9167
930-434-3597
238-969-0390
439-840-2902
429-578-3396
841-554-5184
393-573-1470
448-908-1253
234-242-0427
163-794-9613
375-788-6102
241-321-9401
670-598-9176
690-477-7228
203-736-9801
725-515-0004
614-165-5738
442-581-0392
513-321-9698
192-884-3851
750-557-6322
573-269-9048
945-310-7440
639-451-1965
379-866-7430
801-124-2879
121-825-8693
526-131-7290
362-916-1081
630-346-9306
632-260-7995
703-490-1812
285-498-7994
592-228-9160
354-860-2009
555-444-3353
302-773-7084
913-421-4434
259-851-9527
474-439-1664
131-224-0916
604-274-3791
844-837-5220
970-467-1636
100-590-5853
374-482-9995
690-860-8346
769-321-2226
600-557-3521
311-125-0419
455-552-3185
298-310-5595
983-254-1012
915-309-7510
410-578-7826
937-392-1243
193-906-4834
179-997-1482
357-315-2962
433-874-7429
138-136-0074
707-997-0245
485-437-2580
559-855-9832
285-418-9403
346-237-7634
578-529-4632
733-556-7322
636-791-0596
510-211-9795
782-395-1392
129-630-1138
520-870-2543
493-675-5656
638-719-9328
586-607-3238
176-396-7935
259-375-7185
127-391-7164
532-699-4042
269-797-8216
514-128-8396
785-155-9340
978-668-9414
652-287-4030
482-849-1505
853-976-5258
555-131-5707
958-372-4268
552-648-0003
756-728-7089
397-807-5915
523-590-5329
385-783-4365
299-314-2706
546-990-2833
429-831-5381
583-826-8248
458-653-3066
480-941-9248
665-305-7333
908-121-6762
614-741-9647
734-938-4592
491-796-7910
847-439-0906
296-352-1661
788-135-2428
423-267-4612
988-266-3178
856-700-2412
792-911-4714
501-838-7297
314-934-3742
956-559-7012
111-147-3772
709-177-5026
653-376-7657
214-432-7923
545-163-2418
733-451-7552
548-373-9495
406-327-7106
443-935-5184
731-940-8878
565-548-1011
291-873-3859
632-377-5757
238-862-8698
899-738-9160
508-196-7511
213-121-3356
766-519-8331
785-617-9079
363-375-6144
907-130-1953
110-715-4635
497-279-7678
918-754-3198
365-689-3946
743-827-8074
730-778-1425
840-343-0277
807-908-4339
481-660-2971
705-709-1904
231-338-5635
232-971-4785
202-773-8869
974-262-3271
635-504-8500
266-634-9091
574-154-1610
893-172-1004
985-763-2577
426-532-8642
608-592-0663
485-880-5001
284-448-8946
436-881-4044
644-449-4517
890-733-2368
918-403-5126
561-512-3673
909-844-1901
752-373-1172
177-762-7859
112-912-6823
789-304-2069
771-727-5864
415-398-8142
623-227-8199
511-469-4785
530-839-3740
290-946-2216
798-359-2513
224-795-0773
200-788-3508
860-130-4807
467-500-1078
403-658-7963
646-979-4527
847-449-4801
571-872-1905
590-106-2664
261-915-0707
895-421-1676
479-848-5285
894-340-0421
378-289-1069
246-461-8239
237-328-8353
157-412-9139
705-408-4758
547-184-2593
181-997-8888
924-176-3943
698-628-0146
658-207-2579
561-888-0915
526-996-6117
144-557-3740
135-476-4864
296-673-6305
617-112-8049
502-643-7666
735-120-3897
824-951-9977
997-406-1904
523-897-5324
510-213-5652
676-802-4462
931-355-6084
747-408-0726
851-586-2285
147-475-8340
337-702-3949
275-620-6900
388-261-7519
766-867-5045
347-344-4158
949-898-4588
442-693-3306
820-837-8943
951-828-9677
449-641-8039
973-378-9132
692-333-6738
479-836-1892
182-482-8830
295-377-0160
923-784-1942
841-889-6736
327-904-0560
321-576-5172
663-181-2122
363-845-0087
354-921-6470
559-605-1335
288-445-4607
378-209-9358
554-605-5746
379-508-6311
801-216-4594
503-441-1673
540-822-6842
112-804-9604
730-704-6499
373-400-6812
464-844-7493
957-943-6750
322-228-8603
348-512-4592
693-636-9567
389-242-4337
257-137-3961
844-467-7176
518-793-1066
131-212-5067
392-144-8362
735-719-0774
577-519-7754
286-473-6875
769-317-0895
928-900-4799
766-723-4767
134-913-6056
446-674-5412
311-630-9941
226-312-1842
286-346-1925
545-827-0299
844-593-7075